{
    "page": 1,
    "total_pages": 9,
    "total_results": 175,
    "results": [
        {
            "adult": false,
            "backdrop_path": "/2va32apQP97gvUxaMnL5wYt4CRB.jpg",
            "genres": [],
            "id": 268,
            "original_language": "en",
            "original_title": "Batman",
            "overview": "Batman must face his most ruthless nemesis when a deformed madman calling himself \"The Joker\" seizes control of Gotham's criminal underworld.",
            "popularity": 60.269,
            "poster_path": "/cij4dd21v2Rk2YtUQbV5kW69WB2.jpg",
            "release_date": "1989-06-21",
            "title": "Batman",
            "video": false,
            "vote_average": 7.2,
            "vote_count": 7845
        },
        {
            "adult": false,
            "backdrop_path": "/bxxupqG6TBLKC60M6L8iOvbQEr6.jpg",
            "genres": [],
            "id": 2661,
            "original_language": "en",
            "original_title": "Batman",
            "overview": "The Dynamic Duo faces four super-villains who plan to hold the world for ransom with the help of a secret invention that instantly dehydrates people.",
            "popularity": 25.244,
            "poster_path": "/zzoPxWHnPa0eyfkMLgwbNvdEcVF.jpg",
            "release_date": "1966-07-30",
            "title": "Batman",
            "video": false,
            "vote_average": 6.4,
            "vote_count": 952
        },
        {
            "adult": false,
            "backdrop_path": "/bHxJA9rllKF2jhb11ARAwZJYSp6.jpg",
            "genres": [],
            "id": 125249,
            "original_language": "en",
            "original_title": "Batman",
            "overview": "Japanese master spy Daka operates a covert espionage-sabotage organization located in Gotham City's now-deserted Little Tokyo, which turns American scientists into pliable zombies. The great crime-fighters Batman and Robin, with the help of their allies, are in pursuit.",
            "popularity": 11.543,
            "poster_path": "/AvzD3mrtokIzZOiV6zAG7geIo6F.jpg",
            "release_date": "1943-07-16",
            "title": "Batman",
            "video": false,
            "vote_average": 6.4,
            "vote_count": 109
        },
        {
            "adult": false,
            "backdrop_path": "/5fX1oSGuYdKgwWmUTAN5MNSQGzr.jpg",
            "genres": [],
            "id": 209112,
            "original_language": "en",
            "original_title": "Batman v Superman: Dawn of Justice",
            "overview": "Fearing the actions of a god-like Super Hero left unchecked, Gotham City’s own formidable, forceful vigilante takes on Metropolis’s most revered, modern-day savior, while the world wrestles with what sort of hero it really needs. And with Batman and Superman at war with one another, a new threat quickly arises, putting mankind in greater danger than it’s ever known before.",
            "popularity": 76.835,
            "poster_path": "/5UsK3grJvtQrtzEgqNlDljJW96w.jpg",
            "release_date": "2016-03-23",
            "title": "Batman v Superman: Dawn of Justice",
            "video": false,
            "vote_average": 5.972,
            "vote_count": 17946
        },
        {
            "adult": false,
            "backdrop_path": "/rvtdN5XkWAfGX6xDuPL6yYS2seK.jpg",
            "genres": [],
            "id": 414906,
            "original_language": "en",
            "original_title": "The Batman",
            "overview": "In his second year of fighting crime, Batman uncovers corruption in Gotham City that connects to his own family while facing a serial killer known as the Riddler.",
            "popularity": 146.811,
            "poster_path": "/74xTEgt7R36Fpooo50r9T25onhq.jpg",
            "release_date": "2022-03-01",
            "title": "The Batman",
            "video": false,
            "vote_average": 7.665,
            "vote_count": 10386
        },
        {
            "adult": false,
            "backdrop_path": "/iQJ1gC2p6yn5wnBEklhPaEFJ3n1.jpg",
            "genres": [],
            "id": 886396,
            "original_language": "en",
            "original_title": "Batman and Superman: Battle of the Super Sons",
            "overview": "After discovering he has powers, 11-year-old Jonathan Kent and assassin-turned-Boy-Wonder Damian Wayne must join forces to rescue their fathers (Superman & Batman) and save the planet from the malevolent alien force known as Starro.",
            "popularity": 24.851,
            "poster_path": "/mvffaexT5kA3chOnGxwBSlRoshh.jpg",
            "release_date": "2022-10-17",
            "title": "Batman and Superman: Battle of the Super Sons",
            "video": false,
            "vote_average": 7.7,
            "vote_count": 296
        },
        {
            "adult": false,
            "backdrop_path": "/geeAPcb9iBEWfft6uRnL8aCwBmF.jpg",
            "genres": [],
            "id": 485942,
            "original_language": "ja",
            "original_title": "ニンジャバットマン",
            "overview": "Batman, along with many of his allies and adversaries, finds himself transported to feudal Japan by Gorilla Grodd's time displacement machine.",
            "popularity": 14.583,
            "poster_path": "/5xSB0Npkc9Fd9kahKBsq9P4Cdzp.jpg",
            "release_date": "2018-06-15",
            "title": "Batman Ninja",
            "video": false,
            "vote_average": 5.798,
            "vote_count": 849
        },
        {
            "adult": false,
            "backdrop_path": "/ew5FcYiRhTYNJAkxoVPMNlCOdVn.jpg",
            "genres": [],
            "id": 272,
            "original_language": "en",
            "original_title": "Batman Begins",
            "overview": "Driven by tragedy, billionaire Bruce Wayne dedicates his life to uncovering and defeating the corruption that plagues his home, Gotham City.  Unable to work within the system, he instead creates a new identity, a symbol of fear for the criminal underworld - The Batman.",
            "popularity": 89.249,
            "poster_path": "/4MpN4kIEqUjW8OPtOQJXlTdHiJV.jpg",
            "release_date": "2005-06-10",
            "title": "Batman Begins",
            "video": false,
            "vote_average": 7.71,
            "vote_count": 20992
        },
        {
            "adult": false,
            "backdrop_path": "/rREVL1BKqXIhSM2My60wEja43Og.jpg",
            "genres": [],
            "id": 415,
            "original_language": "en",
            "original_title": "Batman & Robin",
            "overview": "Batman and Robin deal with relationship issues while preventing Mr. Freeze and Poison Ivy from attacking Gotham City.",
            "popularity": 47.524,
            "poster_path": "/cGRDufDDSrFrv7VI4YnmWnslne0.jpg",
            "release_date": "1997-06-20",
            "title": "Batman & Robin",
            "video": false,
            "vote_average": 4.359,
            "vote_count": 4999
        },
        {
            "adult": false,
            "backdrop_path": "/3WP0RObZ2t7ShHfqQpKPljF9B22.jpg",
            "genres": [],
            "id": 364,
            "original_language": "en",
            "original_title": "Batman Returns",
            "overview": "Batman must face The Penguin, a sewer-dwelling gangleader intent on being accepted into Gotham society.  Meanwhile, another Gotham resident finds herself transformed into Catwoman and is out for revenge...",
            "popularity": 39.509,
            "poster_path": "/jKBjeXM7iBBV9UkUcOXx3m7FSHY.jpg",
            "release_date": "1992-06-19",
            "title": "Batman Returns",
            "video": false,
            "vote_average": 6.9,
            "vote_count": 6499
        },
        {
            "adult": false,
            "backdrop_path": "/mo1eLCJTp5JGGz2tKlW98KXpRo0.jpg",
            "genres": [],
            "id": 324849,
            "original_language": "en",
            "original_title": "The Lego Batman Movie",
            "overview": "A cooler-than-ever Bruce Wayne must deal with the usual suspects as they plan to rule Gotham City, while discovering that he has accidentally adopted a teenage orphan who wishes to become his sidekick.",
            "popularity": 33.946,
            "poster_path": "/snGwr2gag4Fcgx2OGmH9otl6ofW.jpg",
            "release_date": "2017-02-08",
            "title": "The Lego Batman Movie",
            "video": false,
            "vote_average": 7.2,
            "vote_count": 4984
        },
        {
            "adult": false,
            "backdrop_path": "/2jApwp78umL4dK9uSBJAngNDiG9.jpg",
            "genres": [],
            "id": 382322,
            "original_language": "en",
            "original_title": "Batman: The Killing Joke",
            "overview": "As Batman hunts for the escaped Joker, the Clown Prince of Crime attacks the Gordon family to prove a diabolical point mirroring his own fall into madness.",
            "popularity": 21.435,
            "poster_path": "/ibgiQ1a1q4UBEjOcqZzsRPhRK0g.jpg",
            "release_date": "2016-07-24",
            "title": "Batman: The Killing Joke",
            "video": false,
            "vote_average": 6.591,
            "vote_count": 1805
        },
        {
            "adult": false,
            "backdrop_path": "/bNLLjc6NT80FmFknvHn8demDHhl.jpg",
            "genres": [],
            "id": 123025,
            "original_language": "en",
            "original_title": "Batman: The Dark Knight Returns, Part 1",
            "overview": "Batman has not been seen for ten years. A new breed of criminal ravages Gotham City, forcing 55-year-old Bruce Wayne back into the cape and cowl. But, does he still have what it takes to fight crime in a new era?",
            "popularity": 32.737,
            "poster_path": "/kkjTbwV1Xnj8wBL52PjOcXzTbnb.jpg",
            "release_date": "2012-08-21",
            "title": "Batman: The Dark Knight Returns, Part 1",
            "video": false,
            "vote_average": 7.728,
            "vote_count": 1585
        },
        {
            "adult": false,
            "backdrop_path": "/kaYyrF2iPVtGN3f4eKI0AqHtVNc.jpg",
            "genres": [],
            "id": 21683,
            "original_language": "en",
            "original_title": "Batman: Mystery of the Batwoman",
            "overview": "As if the Penguin wasn't enough to contend with, a new vigilante has surfaced in Gotham City, and her strong-arm tactics give Batman cause for concern.",
            "popularity": 18.887,
            "poster_path": "/mlmhpUArJdpRPO211v3lETe3uzg.jpg",
            "release_date": "2003-10-21",
            "title": "Batman: Mystery of the Batwoman",
            "video": false,
            "vote_average": 6.6,
            "vote_count": 390
        },
        {
            "adult": false,
            "backdrop_path": "/zHqptza1ttGa7hkYNEXP7ECIyA9.jpg",
            "genres": [],
            "id": 142061,
            "original_language": "en",
            "original_title": "Batman: The Dark Knight Returns, Part 2",
            "overview": "Batman has stopped the reign of terror that The Mutants had cast upon his city.  Now an old foe wants a reunion and the government wants The Man of Steel to put a stop to Batman.",
            "popularity": 24.267,
            "poster_path": "/arEZYd6uMOFTILne9Ux0A8qctMe.jpg",
            "release_date": "2013-01-03",
            "title": "Batman: The Dark Knight Returns, Part 2",
            "video": false,
            "vote_average": 7.9,
            "vote_count": 1472
        },
        {
            "adult": false,
            "backdrop_path": "/snlu32RmjldF9b068UURJg8sQtn.jpg",
            "genres": [],
            "id": 414,
            "original_language": "en",
            "original_title": "Batman Forever",
            "overview": "Batman must battle a disfigured district attorney and a disgruntled former employee with help from an amorous psychologist and a young circus acrobat.",
            "popularity": 46.307,
            "poster_path": "/mzzNBVwTiiY94xAXDMWJpNPW2US.jpg",
            "release_date": "1995-06-16",
            "title": "Batman Forever",
            "video": false,
            "vote_average": 5.4,
            "vote_count": 5145
        },
        {
            "adult": false,
            "backdrop_path": "/bNMw3onveTYU7PpLQRK0HQK8JRb.jpg",
            "genres": [],
            "id": 69735,
            "original_language": "en",
            "original_title": "Batman: Year One",
            "overview": "A wealthy playboy named Bruce Wayne and a Chicago cop named Jim Gordon both return to Gotham City where their lives unexpectedly intersect.",
            "popularity": 24.251,
            "poster_path": "/mLZRhulJcDsxZWTdfx0trtk6y07.jpg",
            "release_date": "2011-09-27",
            "title": "Batman: Year One",
            "video": false,
            "vote_average": 7.2,
            "vote_count": 948
        },
        {
            "adult": false,
            "backdrop_path": "/kU7ZiyeUwcpTkYj3UcxSqGdZmxY.jpg",
            "genres": [],
            "id": 618353,
            "original_language": "en",
            "original_title": "Batman: Death in the Family",
            "overview": "Tragedy strikes the Batman's life again when Robin Jason Todd tracks down his birth mother only to run afoul of the Joker. An adaptation of the 1988 comic book storyline of the same name.",
            "popularity": 19.494,
            "poster_path": "/k8Q9ulyRE8fkvZMkAM9LPYMKctb.jpg",
            "release_date": "2020-10-13",
            "title": "Batman: Death in the Family",
            "video": false,
            "vote_average": 7.1,
            "vote_count": 418
        },
        {
            "adult": false,
            "backdrop_path": "/7eccX0xay9pDj6ZQvU4cu3whw18.jpg",
            "genres": [],
            "id": 1003579,
            "original_language": "en",
            "original_title": "Batman: The Doom That Came to Gotham",
            "overview": "Explorer Bruce Wayne accidentally unleashes an ancient evil, and returns to Gotham after being away for two decades. There, Batman battles Lovecraftian supernatural forces and encounters allies and enemies such as Green Arrow, Ra's al Ghul, Mr. Freeze, Killer Croc, Two-Face and James Gordon.",
            "popularity": 20.284,
            "poster_path": "/dzPNQXI8FlpXTGGp1082RJ8OQoT.jpg",
            "release_date": "2023-03-10",
            "title": "Batman: The Doom That Came to Gotham",
            "video": false,
            "vote_average": 6.6,
            "vote_count": 206
        },
        {
            "adult": false,
            "backdrop_path": "/cMUuAgVsMWOCawXonZ4D1dSMd6h.jpg",
            "genres": [],
            "id": 14919,
            "original_language": "en",
            "original_title": "Batman: Mask of the Phantasm",
            "overview": "Andrea Beaumont leaves her father to return to Gotham, rekindling an old romance with Bruce Wayne. At the same time, a mysterious figure begins to hunt down Gotham's criminals, wrongly implicating Batman in the murders. Now on the run from the law, Batman must find and stop the culprit, while also navigating his relationship with Andrea.",
            "popularity": 16.665,
            "poster_path": "/hT4ehUteagUrhUOHAtmYiY7mp5l.jpg",
            "release_date": "1993-12-25",
            "title": "Batman: Mask of the Phantasm",
            "video": false,
            "vote_average": 7.5,
            "vote_count": 1100
        }
    ]
}